{
  "cod": "200",
  "message": 0,
  "cnt": 40,
  "list": [{
    "dt": 1623078000,
    "main": {
      "temp": 295.1,
      "feels_like": 295.02,
      "temp_min": 294,
      "temp_max": 295.1,
      "pressure": 1024,
      "sea_level": 1024,
      "grnd_level": 1020,
      "humidity": 64,
      "temp_kf": 1.1
    },
    "weather": [{
      "id": 500,
      "main": "Rain",
      "description": "light rain",
      "icon": "10d"
    }],
    "clouds": {
      "all": 40
    },
    "wind": {
      "speed": 3.05,
      "deg": 235,
      "gust": 3.91
    },
    "visibility": 10000,
    "pop": 0.53,
    "rain": {
      "3h": 0.31
    },
    "sys": {
      "pod": "d"
    },
    "dt_txt": "2021-06-07 15:00:00"
  }, {
    "dt": 1623088800,
    "main": {
      "temp": 294.07,
      "feels_like": 294.02,
      "temp_min": 292,
      "temp_max": 294.07,
      "pressure": 1024,
      "sea_level": 1024,
      "grnd_level": 1019,
      "humidity": 69,
      "temp_kf": 2.07
    },
    "weather": [{
      "id": 500,
      "main": "Rain",
      "description": "light rain",
      "icon": "10d"
    }],
    "clouds": {
      "all": 57
    },
    "wind": {
      "speed": 2.85,
      "deg": 246,
      "gust": 4.82
    },
    "visibility": 10000,
    "pop": 0.67,
    "rain": {
      "3h": 0.8
    },
    "sys": {
      "pod": "d"
    },
    "dt_txt": "2021-06-07 18:00:00"
  }, {
    "dt": 1623099600,
    "main": {
      "temp": 291.24,
      "feels_like": 291.25,
      "temp_min": 289.31,
      "temp_max": 291.24,
      "pressure": 1024,
      "sea_level": 1024,
      "grnd_level": 1020,
      "humidity": 82,
      "temp_kf": 1.93
    },
    "weather": [{
      "id": 500,
      "main": "Rain",
      "description": "light rain",
      "icon": "10n"
    }],
    "clouds": {
      "all": 80
    },
    "wind": {
      "speed": 1.52,
      "deg": 246,
      "gust": 2.53
    },
    "visibility": 10000,
    "pop": 0.32,
    "rain": {
      "3h": 0.25
    },
    "sys": {
      "pod": "n"
    },
    "dt_txt": "2021-06-07 21:00:00"
  }, {
    "dt": 1623110400,
    "main": {
      "temp": 287.54,
      "feels_like": 287.54,
      "temp_min": 287.54,
      "temp_max": 287.54,
      "pressure": 1024,
      "sea_level": 1024,
      "grnd_level": 1021,
      "humidity": 96,
      "temp_kf": 0
    },
    "weather": [{
      "id": 804,
      "main": "Clouds",
      "description": "overcast clouds",
      "icon": "04n"
    }],
    "clouds": {
      "all": 92
    },
    "wind": {
      "speed": 1.74,
      "deg": 250,
      "gust": 3.46
    },
    "visibility": 10000,
    "pop": 0,
    "sys": {
      "pod": "n"
    },
    "dt_txt": "2021-06-08 00:00:00"
  }, {
    "dt": 1623121200,
    "main": {
      "temp": 285.97,
      "feels_like": 285.74,
      "temp_min": 285.97,
      "temp_max": 285.97,
      "pressure": 1024,
      "sea_level": 1024,
      "grnd_level": 1020,
      "humidity": 93,
      "temp_kf": 0
    },
    "weather": [{
      "id": 801,
      "main": "Clouds",
      "description": "few clouds",
      "icon": "02n"
    }],
    "clouds": {
      "all": 12
    },
    "wind": {
      "speed": 1.58,
      "deg": 271,
      "gust": 2.26
    },
    "visibility": 10000,
    "pop": 0,
    "sys": {
      "pod": "n"
    },
    "dt_txt": "2021-06-08 03:00:00"
  }, {
    "dt": 1623132000,
    "main": {
      "temp": 286.89,
      "feels_like": 286.41,
      "temp_min": 286.89,
      "temp_max": 286.89,
      "pressure": 1024,
      "sea_level": 1024,
      "grnd_level": 1021,
      "humidity": 80,
      "temp_kf": 0
    },
    "weather": [{
      "id": 801,
      "main": "Clouds",
      "description": "few clouds",
      "icon": "02d"
    }],
    "clouds": {
      "all": 18
    },
    "wind": {
      "speed": 1.12,
      "deg": 276,
      "gust": 1.57
    },
    "visibility": 10000,
    "pop": 0,
    "sys": {
      "pod": "d"
    },
    "dt_txt": "2021-06-08 06:00:00"
  }, {
    "dt": 1623142800,
    "main": {
      "temp": 291.49,
      "feels_like": 290.92,
      "temp_min": 291.49,
      "temp_max": 291.49,
      "pressure": 1024,
      "sea_level": 1024,
      "grnd_level": 1021,
      "humidity": 59,
      "temp_kf": 0
    },
    "weather": [{
      "id": 802,
      "main": "Clouds",
      "description": "scattered clouds",
      "icon": "03d"
    }],
    "clouds": {
      "all": 47
    },
    "wind": {
      "speed": 1.76,
      "deg": 252,
      "gust": 2.18
    },
    "visibility": 10000,
    "pop": 0,
    "sys": {
      "pod": "d"
    },
    "dt_txt": "2021-06-08 09:00:00"
  }, {
    "dt": 1623153600,
    "main": {
      "temp": 294.74,
      "feels_like": 294,
      "temp_min": 294.74,
      "temp_max": 294.74,
      "pressure": 1023,
      "sea_level": 1023,
      "grnd_level": 1020,
      "humidity": 40,
      "temp_kf": 0
    },
    "weather": [{
      "id": 803,
      "main": "Clouds",
      "description": "broken clouds",
      "icon": "04d"
    }],
    "clouds": {
      "all": 63
    },
    "wind": {
      "speed": 2.42,
      "deg": 261,
      "gust": 2.97
    },
    "visibility": 10000,
    "pop": 0,
    "sys": {
      "pod": "d"
    },
    "dt_txt": "2021-06-08 12:00:00"
  }, {
    "dt": 1623164400,
    "main": {
      "temp": 295.94,
      "feels_like": 295.32,
      "temp_min": 295.94,
      "temp_max": 295.94,
      "pressure": 1022,
      "sea_level": 1022,
      "grnd_level": 1019,
      "humidity": 40,
      "temp_kf": 0
    },
    "weather": [{
      "id": 802,
      "main": "Clouds",
      "description": "scattered clouds",
      "icon": "03d"
    }],
    "clouds": {
      "all": 41
    },
    "wind": {
      "speed": 3.16,
      "deg": 279,
      "gust": 3.29
    },
    "visibility": 10000,
    "pop": 0,
    "sys": {
      "pod": "d"
    },
    "dt_txt": "2021-06-08 15:00:00"
  }, {
    "dt": 1623175200,
    "main": {
      "temp": 294.16,
      "feels_like": 293.57,
      "temp_min": 294.16,
      "temp_max": 294.16,
      "pressure": 1022,
      "sea_level": 1022,
      "grnd_level": 1019,
      "humidity": 48,
      "temp_kf": 0
    },
    "weather": [{
      "id": 802,
      "main": "Clouds",
      "description": "scattered clouds",
      "icon": "03d"
    }],
    "clouds": {
      "all": 38
    },
    "wind": {
      "speed": 3.16,
      "deg": 286,
      "gust": 2.96
    },
    "visibility": 10000,
    "pop": 0,
    "sys": {
      "pod": "d"
    },
    "dt_txt": "2021-06-08 18:00:00"
  }, {
    "dt": 1623186000,
    "main": {
      "temp": 290.15,
      "feels_like": 289.73,
      "temp_min": 290.15,
      "temp_max": 290.15,
      "pressure": 1023,
      "sea_level": 1023,
      "grnd_level": 1020,
      "humidity": 70,
      "temp_kf": 0
    },
    "weather": [{
      "id": 803,
      "main": "Clouds",
      "description": "broken clouds",
      "icon": "04n"
    }],
    "clouds": {
      "all": 58
    },
    "wind": {
      "speed": 0.84,
      "deg": 303,
      "gust": 0.95
    },
    "visibility": 10000,
    "pop": 0,
    "sys": {
      "pod": "n"
    },
    "dt_txt": "2021-06-08 21:00:00"
  }, {
    "dt": 1623196800,
    "main": {
      "temp": 288.43,
      "feels_like": 288.08,
      "temp_min": 288.43,
      "temp_max": 288.43,
      "pressure": 1023,
      "sea_level": 1023,
      "grnd_level": 1020,
      "humidity": 79,
      "temp_kf": 0
    },
    "weather": [{
      "id": 803,
      "main": "Clouds",
      "description": "broken clouds",
      "icon": "04n"
    }],
    "clouds": {
      "all": 64
    },
    "wind": {
      "speed": 0.9,
      "deg": 248,
      "gust": 0.88
    },
    "visibility": 10000,
    "pop": 0,
    "sys": {
      "pod": "n"
    },
    "dt_txt": "2021-06-09 00:00:00"
  }, {
    "dt": 1623207600,
    "main": {
      "temp": 286.91,
      "feels_like": 286.56,
      "temp_min": 286.91,
      "temp_max": 286.91,
      "pressure": 1022,
      "sea_level": 1022,
      "grnd_level": 1019,
      "humidity": 85,
      "temp_kf": 0
    },
    "weather": [{
      "id": 804,
      "main": "Clouds",
      "description": "overcast clouds",
      "icon": "04n"
    }],
    "clouds": {
      "all": 100
    },
    "wind": {
      "speed": 1.56,
      "deg": 229,
      "gust": 2.18
    },
    "visibility": 10000,
    "pop": 0,
    "sys": {
      "pod": "n"
    },
    "dt_txt": "2021-06-09 03:00:00"
  }, {
    "dt": 1623218400,
    "main": {
      "temp": 288.1,
      "feels_like": 287.56,
      "temp_min": 288.1,
      "temp_max": 288.1,
      "pressure": 1023,
      "sea_level": 1023,
      "grnd_level": 1019,
      "humidity": 73,
      "temp_kf": 0
    },
    "weather": [{
      "id": 803,
      "main": "Clouds",
      "description": "broken clouds",
      "icon": "04d"
    }],
    "clouds": {
      "all": 60
    },
    "wind": {
      "speed": 2.06,
      "deg": 238,
      "gust": 3.21
    },
    "visibility": 10000,
    "pop": 0,
    "sys": {
      "pod": "d"
    },
    "dt_txt": "2021-06-09 06:00:00"
  }, {
    "dt": 1623229200,
    "main": {
      "temp": 292.71,
      "feels_like": 291.79,
      "temp_min": 292.71,
      "temp_max": 292.71,
      "pressure": 1022,
      "sea_level": 1022,
      "grnd_level": 1019,
      "humidity": 41,
      "temp_kf": 0
    },
    "weather": [{
      "id": 801,
      "main": "Clouds",
      "description": "few clouds",
      "icon": "02d"
    }],
    "clouds": {
      "all": 12
    },
    "wind": {
      "speed": 2.96,
      "deg": 241,
      "gust": 4.13
    },
    "visibility": 10000,
    "pop": 0,
    "sys": {
      "pod": "d"
    },
    "dt_txt": "2021-06-09 09:00:00"
  }, {
    "dt": 1623240000,
    "main": {
      "temp": 296.16,
      "feels_like": 295.38,
      "temp_min": 296.16,
      "temp_max": 296.16,
      "pressure": 1022,
      "sea_level": 1022,
      "grnd_level": 1019,
      "humidity": 33,
      "temp_kf": 0
    },
    "weather": [{
      "id": 801,
      "main": "Clouds",
      "description": "few clouds",
      "icon": "02d"
    }],
    "clouds": {
      "all": 11
    },
    "wind": {
      "speed": 3.22,
      "deg": 244,
      "gust": 3.92
    },
    "visibility": 10000,
    "pop": 0,
    "sys": {
      "pod": "d"
    },
    "dt_txt": "2021-06-09 12:00:00"
  }, {
    "dt": 1623250800,
    "main": {
      "temp": 297.19,
      "feels_like": 296.77,
      "temp_min": 297.19,
      "temp_max": 297.19,
      "pressure": 1021,
      "sea_level": 1021,
      "grnd_level": 1018,
      "humidity": 43,
      "temp_kf": 0
    },
    "weather": [{
      "id": 800,
      "main": "Clear",
      "description": "clear sky",
      "icon": "01d"
    }],
    "clouds": {
      "all": 9
    },
    "wind": {
      "speed": 3.91,
      "deg": 258,
      "gust": 4.55
    },
    "visibility": 10000,
    "pop": 0,
    "sys": {
      "pod": "d"
    },
    "dt_txt": "2021-06-09 15:00:00"
  }, {
    "dt": 1623261600,
    "main": {
      "temp": 295.45,
      "feels_like": 295.17,
      "temp_min": 295.45,
      "temp_max": 295.45,
      "pressure": 1021,
      "sea_level": 1021,
      "grnd_level": 1018,
      "humidity": 55,
      "temp_kf": 0
    },
    "weather": [{
      "id": 801,
      "main": "Clouds",
      "description": "few clouds",
      "icon": "02d"
    }],
    "clouds": {
      "all": 24
    },
    "wind": {
      "speed": 3.43,
      "deg": 268,
      "gust": 3.81
    },
    "visibility": 10000,
    "pop": 0,
    "sys": {
      "pod": "d"
    },
    "dt_txt": "2021-06-09 18:00:00"
  }, {
    "dt": 1623272400,
    "main": {
      "temp": 291.76,
      "feels_like": 291.63,
      "temp_min": 291.76,
      "temp_max": 291.76,
      "pressure": 1022,
      "sea_level": 1022,
      "grnd_level": 1019,
      "humidity": 75,
      "temp_kf": 0
    },
    "weather": [{
      "id": 802,
      "main": "Clouds",
      "description": "scattered clouds",
      "icon": "03n"
    }],
    "clouds": {
      "all": 32
    },
    "wind": {
      "speed": 2.23,
      "deg": 238,
      "gust": 5.51
    },
    "visibility": 10000,
    "pop": 0,
    "sys": {
      "pod": "n"
    },
    "dt_txt": "2021-06-09 21:00:00"
  }, {
    "dt": 1623283200,
    "main": {
      "temp": 289.67,
      "feels_like": 289.6,
      "temp_min": 289.67,
      "temp_max": 289.67,
      "pressure": 1022,
      "sea_level": 1022,
      "grnd_level": 1019,
      "humidity": 85,
      "temp_kf": 0
    },
    "weather": [{
      "id": 802,
      "main": "Clouds",
      "description": "scattered clouds",
      "icon": "03n"
    }],
    "clouds": {
      "all": 27
    },
    "wind": {
      "speed": 2.01,
      "deg": 234,
      "gust": 4.89
    },
    "visibility": 10000,
    "pop": 0,
    "sys": {
      "pod": "n"
    },
    "dt_txt": "2021-06-10 00:00:00"
  }, {
    "dt": 1623294000,
    "main": {
      "temp": 288.19,
      "feels_like": 288.13,
      "temp_min": 288.19,
      "temp_max": 288.19,
      "pressure": 1022,
      "sea_level": 1022,
      "grnd_level": 1018,
      "humidity": 91,
      "temp_kf": 0
    },
    "weather": [{
      "id": 803,
      "main": "Clouds",
      "description": "broken clouds",
      "icon": "04n"
    }],
    "clouds": {
      "all": 61
    },
    "wind": {
      "speed": 1.76,
      "deg": 221,
      "gust": 3.83
    },
    "visibility": 10000,
    "pop": 0,
    "sys": {
      "pod": "n"
    },
    "dt_txt": "2021-06-10 03:00:00"
  }, {
    "dt": 1623304800,
    "main": {
      "temp": 289.35,
      "feels_like": 289.19,
      "temp_min": 289.35,
      "temp_max": 289.35,
      "pressure": 1022,
      "sea_level": 1022,
      "grnd_level": 1019,
      "humidity": 83,
      "temp_kf": 0
    },
    "weather": [{
      "id": 803,
      "main": "Clouds",
      "description": "broken clouds",
      "icon": "04d"
    }],
    "clouds": {
      "all": 56
    },
    "wind": {
      "speed": 2.22,
      "deg": 233,
      "gust": 3.5
    },
    "visibility": 10000,
    "pop": 0,
    "sys": {
      "pod": "d"
    },
    "dt_txt": "2021-06-10 06:00:00"
  }, {
    "dt": 1623315600,
    "main": {
      "temp": 293.86,
      "feels_like": 293.66,
      "temp_min": 293.86,
      "temp_max": 293.86,
      "pressure": 1021,
      "sea_level": 1021,
      "grnd_level": 1018,
      "humidity": 64,
      "temp_kf": 0
    },
    "weather": [{
      "id": 803,
      "main": "Clouds",
      "description": "broken clouds",
      "icon": "04d"
    }],
    "clouds": {
      "all": 70
    },
    "wind": {
      "speed": 2.72,
      "deg": 245,
      "gust": 3.91
    },
    "visibility": 10000,
    "pop": 0,
    "sys": {
      "pod": "d"
    },
    "dt_txt": "2021-06-10 09:00:00"
  }, {
    "dt": 1623326400,
    "main": {
      "temp": 294.24,
      "feels_like": 294.1,
      "temp_min": 294.24,
      "temp_max": 294.24,
      "pressure": 1021,
      "sea_level": 1021,
      "grnd_level": 1018,
      "humidity": 65,
      "temp_kf": 0
    },
    "weather": [{
      "id": 804,
      "main": "Clouds",
      "description": "overcast clouds",
      "icon": "04d"
    }],
    "clouds": {
      "all": 85
    },
    "wind": {
      "speed": 3.29,
      "deg": 243,
      "gust": 4.02
    },
    "visibility": 10000,
    "pop": 0,
    "sys": {
      "pod": "d"
    },
    "dt_txt": "2021-06-10 12:00:00"
  }, {
    "dt": 1623337200,
    "main": {
      "temp": 295.69,
      "feels_like": 295.54,
      "temp_min": 295.69,
      "temp_max": 295.69,
      "pressure": 1020,
      "sea_level": 1020,
      "grnd_level": 1017,
      "humidity": 59,
      "temp_kf": 0
    },
    "weather": [{
      "id": 500,
      "main": "Rain",
      "description": "light rain",
      "icon": "10d"
    }],
    "clouds": {
      "all": 92
    },
    "wind": {
      "speed": 3.8,
      "deg": 231,
      "gust": 4.47
    },
    "visibility": 10000,
    "pop": 0.21,
    "rain": {
      "3h": 0.13
    },
    "sys": {
      "pod": "d"
    },
    "dt_txt": "2021-06-10 15:00:00"
  }, {
    "dt": 1623348000,
    "main": {
      "temp": 294.99,
      "feels_like": 294.87,
      "temp_min": 294.99,
      "temp_max": 294.99,
      "pressure": 1020,
      "sea_level": 1020,
      "grnd_level": 1017,
      "humidity": 63,
      "temp_kf": 0
    },
    "weather": [{
      "id": 803,
      "main": "Clouds",
      "description": "broken clouds",
      "icon": "04d"
    }],
    "clouds": {
      "all": 78
    },
    "wind": {
      "speed": 3.55,
      "deg": 241,
      "gust": 4.65
    },
    "visibility": 10000,
    "pop": 0.17,
    "sys": {
      "pod": "d"
    },
    "dt_txt": "2021-06-10 18:00:00"
  }, {
    "dt": 1623358800,
    "main": {
      "temp": 291.63,
      "feels_like": 291.7,
      "temp_min": 291.63,
      "temp_max": 291.63,
      "pressure": 1021,
      "sea_level": 1021,
      "grnd_level": 1017,
      "humidity": 83,
      "temp_kf": 0
    },
    "weather": [{
      "id": 802,
      "main": "Clouds",
      "description": "scattered clouds",
      "icon": "03n"
    }],
    "clouds": {
      "all": 31
    },
    "wind": {
      "speed": 2.2,
      "deg": 245,
      "gust": 5.9
    },
    "visibility": 10000,
    "pop": 0,
    "sys": {
      "pod": "n"
    },
    "dt_txt": "2021-06-10 21:00:00"
  }, {
    "dt": 1623369600,
    "main": {
      "temp": 289.77,
      "feels_like": 289.89,
      "temp_min": 289.77,
      "temp_max": 289.77,
      "pressure": 1020,
      "sea_level": 1020,
      "grnd_level": 1017,
      "humidity": 92,
      "temp_kf": 0
    },
    "weather": [{
      "id": 801,
      "main": "Clouds",
      "description": "few clouds",
      "icon": "02n"
    }],
    "clouds": {
      "all": 21
    },
    "wind": {
      "speed": 1.82,
      "deg": 234,
      "gust": 4.31
    },
    "visibility": 10000,
    "pop": 0,
    "sys": {
      "pod": "n"
    },
    "dt_txt": "2021-06-11 00:00:00"
  }, {
    "dt": 1623380400,
    "main": {
      "temp": 288.58,
      "feels_like": 288.63,
      "temp_min": 288.58,
      "temp_max": 288.58,
      "pressure": 1020,
      "sea_level": 1020,
      "grnd_level": 1017,
      "humidity": 94,
      "temp_kf": 0
    },
    "weather": [{
      "id": 800,
      "main": "Clear",
      "description": "clear sky",
      "icon": "01n"
    }],
    "clouds": {
      "all": 4
    },
    "wind": {
      "speed": 1.89,
      "deg": 241,
      "gust": 5.45
    },
    "visibility": 10000,
    "pop": 0,
    "sys": {
      "pod": "n"
    },
    "dt_txt": "2021-06-11 03:00:00"
  }, {
    "dt": 1623391200,
    "main": {
      "temp": 290.19,
      "feels_like": 290.06,
      "temp_min": 290.19,
      "temp_max": 290.19,
      "pressure": 1021,
      "sea_level": 1021,
      "grnd_level": 1018,
      "humidity": 81,
      "temp_kf": 0
    },
    "weather": [{
      "id": 800,
      "main": "Clear",
      "description": "clear sky",
      "icon": "01d"
    }],
    "clouds": {
      "all": 3
    },
    "wind": {
      "speed": 2.63,
      "deg": 258,
      "gust": 5.13
    },
    "visibility": 10000,
    "pop": 0,
    "sys": {
      "pod": "d"
    },
    "dt_txt": "2021-06-11 06:00:00"
  }, {
    "dt": 1623402000,
    "main": {
      "temp": 295.29,
      "feels_like": 295.13,
      "temp_min": 295.29,
      "temp_max": 295.29,
      "pressure": 1021,
      "sea_level": 1021,
      "grnd_level": 1018,
      "humidity": 60,
      "temp_kf": 0
    },
    "weather": [{
      "id": 800,
      "main": "Clear",
      "description": "clear sky",
      "icon": "01d"
    }],
    "clouds": {
      "all": 5
    },
    "wind": {
      "speed": 3.16,
      "deg": 264,
      "gust": 4.66
    },
    "visibility": 10000,
    "pop": 0,
    "sys": {
      "pod": "d"
    },
    "dt_txt": "2021-06-11 09:00:00"
  }, {
    "dt": 1623412800,
    "main": {
      "temp": 298.61,
      "feels_like": 298.44,
      "temp_min": 298.61,
      "temp_max": 298.61,
      "pressure": 1020,
      "sea_level": 1020,
      "grnd_level": 1017,
      "humidity": 47,
      "temp_kf": 0
    },
    "weather": [{
      "id": 500,
      "main": "Rain",
      "description": "light rain",
      "icon": "10d"
    }],
    "clouds": {
      "all": 22
    },
    "wind": {
      "speed": 3.82,
      "deg": 268,
      "gust": 4.8
    },
    "visibility": 10000,
    "pop": 0.2,
    "rain": {
      "3h": 0.12
    },
    "sys": {
      "pod": "d"
    },
    "dt_txt": "2021-06-11 12:00:00"
  }, {
    "dt": 1623423600,
    "main": {
      "temp": 298.03,
      "feels_like": 297.88,
      "temp_min": 298.03,
      "temp_max": 298.03,
      "pressure": 1019,
      "sea_level": 1019,
      "grnd_level": 1016,
      "humidity": 50,
      "temp_kf": 0
    },
    "weather": [{
      "id": 804,
      "main": "Clouds",
      "description": "overcast clouds",
      "icon": "04d"
    }],
    "clouds": {
      "all": 98
    },
    "wind": {
      "speed": 4.3,
      "deg": 271,
      "gust": 5.05
    },
    "visibility": 10000,
    "pop": 0.18,
    "sys": {
      "pod": "d"
    },
    "dt_txt": "2021-06-11 15:00:00"
  }, {
    "dt": 1623434400,
    "main": {
      "temp": 296.02,
      "feels_like": 295.98,
      "temp_min": 296.02,
      "temp_max": 296.02,
      "pressure": 1020,
      "sea_level": 1020,
      "grnd_level": 1017,
      "humidity": 62,
      "temp_kf": 0
    },
    "weather": [{
      "id": 500,
      "main": "Rain",
      "description": "light rain",
      "icon": "10d"
    }],
    "clouds": {
      "all": 99
    },
    "wind": {
      "speed": 4.55,
      "deg": 299,
      "gust": 5.72
    },
    "visibility": 10000,
    "pop": 0.32,
    "rain": {
      "3h": 0.12
    },
    "sys": {
      "pod": "d"
    },
    "dt_txt": "2021-06-11 18:00:00"
  }, {
    "dt": 1623445200,
    "main": {
      "temp": 292.32,
      "feels_like": 292.2,
      "temp_min": 292.32,
      "temp_max": 292.32,
      "pressure": 1021,
      "sea_level": 1021,
      "grnd_level": 1018,
      "humidity": 73,
      "temp_kf": 0
    },
    "weather": [{
      "id": 804,
      "main": "Clouds",
      "description": "overcast clouds",
      "icon": "04n"
    }],
    "clouds": {
      "all": 100
    },
    "wind": {
      "speed": 2.7,
      "deg": 280,
      "gust": 6.07
    },
    "visibility": 10000,
    "pop": 0.02,
    "sys": {
      "pod": "n"
    },
    "dt_txt": "2021-06-11 21:00:00"
  }, {
    "dt": 1623456000,
    "main": {
      "temp": 289.95,
      "feels_like": 289.8,
      "temp_min": 289.95,
      "temp_max": 289.95,
      "pressure": 1022,
      "sea_level": 1022,
      "grnd_level": 1019,
      "humidity": 81,
      "temp_kf": 0
    },
    "weather": [{
      "id": 804,
      "main": "Clouds",
      "description": "overcast clouds",
      "icon": "04d"
    }],
    "clouds": {
      "all": 97
    },
    "wind": {
      "speed": 1.9,
      "deg": 276,
      "gust": 4.53
    },
    "visibility": 10000,
    "pop": 0,
    "sys": {
      "pod": "d"
    },
    "dt_txt": "2021-06-12 00:00:00"
  }, {
    "dt": 1623466800,
    "main": {
      "temp": 288.66,
      "feels_like": 288.59,
      "temp_min": 288.66,
      "temp_max": 288.66,
      "pressure": 1022,
      "sea_level": 1022,
      "grnd_level": 1019,
      "humidity": 89,
      "temp_kf": 0
    },
    "weather": [{
      "id": 803,
      "main": "Clouds",
      "description": "broken clouds",
      "icon": "04d"
    }],
    "clouds": {
      "all": 73
    },
    "wind": {
      "speed": 1.92,
      "deg": 298,
      "gust": 5.21
    },
    "visibility": 10000,
    "pop": 0,
    "sys": {
      "pod": "d"
    },
    "dt_txt": "2021-06-12 03:00:00"
  }, {
    "dt": 1623477600,
    "main": {
      "temp": 290,
      "feels_like": 289.67,
      "temp_min": 290,
      "temp_max": 290,
      "pressure": 1023,
      "sea_level": 1023,
      "grnd_level": 1020,
      "humidity": 74,
      "temp_kf": 0
    },
    "weather": [{
      "id": 803,
      "main": "Clouds",
      "description": "broken clouds",
      "icon": "04d"
    }],
    "clouds": {
      "all": 56
    },
    "wind": {
      "speed": 1.79,
      "deg": 328,
      "gust": 2.93
    },
    "visibility": 10000,
    "pop": 0,
    "sys": {
      "pod": "d"
    },
    "dt_txt": "2021-06-12 06:00:00"
  }, {
    "dt": 1623488400,
    "main": {
      "temp": 294.11,
      "feels_like": 293.7,
      "temp_min": 294.11,
      "temp_max": 294.11,
      "pressure": 1023,
      "sea_level": 1023,
      "grnd_level": 1020,
      "humidity": 55,
      "temp_kf": 0
    },
    "weather": [{
      "id": 802,
      "main": "Clouds",
      "description": "scattered clouds",
      "icon": "03d"
    }],
    "clouds": {
      "all": 33
    },
    "wind": {
      "speed": 2.11,
      "deg": 331,
      "gust": 2.51
    },
    "visibility": 10000,
    "pop": 0,
    "sys": {
      "pod": "d"
    },
    "dt_txt": "2021-06-12 09:00:00"
  }, {
    "dt": 1623499200,
    "main": {
      "temp": 297.47,
      "feels_like": 297.08,
      "temp_min": 297.47,
      "temp_max": 297.47,
      "pressure": 1023,
      "sea_level": 1023,
      "grnd_level": 1020,
      "humidity": 43,
      "temp_kf": 0
    },
    "weather": [{
      "id": 802,
      "main": "Clouds",
      "description": "scattered clouds",
      "icon": "03d"
    }],
    "clouds": {
      "all": 46
    },
    "wind": {
      "speed": 2.63,
      "deg": 358,
      "gust": 2.19
    },
    "visibility": 10000,
    "pop": 0,
    "sys": {
      "pod": "d"
    },
    "dt_txt": "2021-06-12 12:00:00"
  }],
  "city": {
    "id": 2643743,
    "name": "London",
    "coord": {
      "lat": 51.5085,
      "lon": -0.1257
    },
    "country": "GB",
    "population": 1000000,
    "timezone": 3600,
    "sunrise": 1623037511,
    "sunset": 1623096831
  }
}